{
    "use": ["postcss-cssnext", "postcss-import"],
    "input": "./src/styles/main.css",
    "output": "./build/styles.css",
    "local-plugins": true,
    "cssnext": {
        "browsers": "> 5%"
    }
}
